Chapter 4 Données de Parcoursup | Patient
…
## Warning: The following named parsers don't match the column names: Sepal.Length, Sepal.Width, Petal.Length,
## Petal.Width, Species

## Warning: One or more parsing issues, call `problems()` on your data frame for details, e.g.:
##   dat <- vroom(...)
##   problems(dat)

## # A tibble: 150 × 1
##    `Sepal.Length;Sepal.Width;Petal.Length;Petal.Width;Species`
##    <chr>                                                      
##  1 5,1;3,5;1,4;NA;setosa                                      
##  2 4,9;3;1,4;NA;setosa                                        
##  3 4,7;3,2;1,3;NA;setosa                                      
##  4 4,6;3,1;1,5;NA;setosa                                      
##  5 5;3,6;1,4;NA;setosa                                        
##  6 5,4;3,9;1,7;0,4;setosa                                     
##  7 4,6;3,4;1,4;0,3;setosa                                     
##  8 5;3,4;1,5;0,2;setosa                                       
##  9 4,4;2,9;1,4;0,2;setosa                                     
## 10 4,9;3,1;1,5;0,1;setosa                                     
## # ℹ 140 more rows
…
