Chapter 7 Manipulation avancée (mettre en forme vos données) | Patient
…
On voit que les guillemets ont été importés et parasite la ligne des noms de colonnes.
Pour ça on utilise gsub, une fonction qui remplace les caractéères dans le premier
argument par les caractères dans le deuxième. Le troisième argument est vecteur
dans lequel on veut remplacer le texte.

Ici on va remplacer un guillemet double, partout, par aucun caractère. Et on applique
ça aux noms de variables de msq, ce qui nous donne :

colnames(msq) <- gsub('"','',colnames(msq),fixed=T)
msq

## # A tibble: 200 × 14
##    active alert aroused sleepy tired drowsy anxious jittery nervous  calm relaxed at.ease gender  drug
##     <dbl> <dbl>   <dbl>  <dbl> <dbl>  <dbl>   <dbl>   <dbl>   <dbl> <dbl>   <dbl>   <dbl>  <dbl> <dbl>
##  1      2     2       0      0     1      1       1       1       0     2       2       2      2     2
##  2      1     1       0      2     2      2       1       0       1     2       2       2      2     1
##  3      1     1       1      3     3      2       2       0       1     2       2       2      1     1
##  4      1     2       0      1     1      0       0       0       0     2       2       2      2     2
##  5      1     2       1      1     1      0       0       1       0     3       2       3      1     1
##  6      3     3       2      0     0      0       1       0       0     2       3       3      1     2
##  7      1     1       0      2     2      3       0       0       0     1       2       1      2     2
##  8      0     1       0      1     1      1       0       0       0     3       2       2      2     1
##  9      3     3       3      0     0      0       3       3       1     0       0       0      1     2
## 10      1     1       0      1     1      1       0       0       0     1       2       2      1     1
## # ℹ 190 more rows
…
